{
    "name": "Что делать в соц. сетях ежедневно",
    "leading": "Ведущий",
    "avatara": "",
    "infoblok": "<a target='_blank' href=''></a>",
    "reload": "",
    "infolitebox": "",
    "chat": ""
}