{
    "name": "3 Кита Интернет-Бизнеса",
    "leading": "Альмира",
    "avatara": "1",
    "infoblok": "<a target='_blank' href='http://ruelsoft.com/tariff/downgrade_select/'>http://ruelsoft.com/tariff/downgrade_select/</a>",
    "reload": "",
    "infolitebox": "<a target='_blank' href='http://ruelsoft.com/tariff/downgrade_select/'>http://ruelsoft.com/tariff/downgrade_select/</a>",
    "chat": ""
}