{
    "check": "true",
    "name": "Открытие 109 сессии 2",
    "leading": "Альмира",
    "avatara": "1",
    "channel": {
        "360": "rtmp://144.76.138.117:1935/live/test",
        "720": "rtmp://144.76.138.117:1935/live/test"
    }
}